it1: E[e,BH,2] + E[e,PA,3] + E[e,FZ,4] + E[e,CU,5] + E[e,RJ,6] >= 5 - M (1 - I[e,1])
it2: E[e,BR,3] + E[e,SP,4] + E[e,NT,5] + E[e,PA,6] + E[e,RJ,7] >= 5 - M (1 - I[e,2])
it3: E[e,NT,4] + E[e,CU,5] + E[e,PA,6] + E[e,SP,7] + E[e,RJ,8] >= 5 - M (1 - I[e,3])
it4: E[e,CU,5] + E[e,PA,6] + E[e,BR,7] + E[e,SV,8] + E[e,RJ,9] >= 5 - M (1 - I[e,4])
it5: E[e,RE,1] + E[e,BH,2] + E[e,RJ,3] >= 3 - M (1 - I[e,5])
it6: E[e,BR,7] + E[e,CT,8] + E[e,MN,9] + E[e,RJ,10] >= 4 - M (1 - I[e,6])
it7: E[e,CU,1] + E[e,BH,2] + E[e,MN,3] + E[e,BR,4] + E[e,NT,5] + E[e,RJ,6] >= 6 - M (1 - I[e,7])
it8: E[e,BH,2] + E[e,PA,3] + E[e,SP,4] + E[e,NT,5] + E[e,RJ,6] >= 5 - M (1 - I[e,8])
it9: E[e,SP,4] + E[e,NT,5] + E[e,PA,6] + E[e,BR,7] + E[e,RJ,8] >= 5 - M (1 - I[e,9])
it10: E[e,NT,5] + E[e,PA,6] + E[e,RJ,7] >= 3 - M (1 - I[e,10])
it11: E[e,SP,7] + E[e,RJ,8] >= 2 - M (1 - I[e,11])
it12: E[e,BR,7] + E[e,CU,8] + E[e,FZ,9] + E[e,RJ,10] >= 4 - M (1 - I[e,12])
it13: E[e,CU,1] + E[e,FZ,2] + E[e,BR,3] + E[e,SV,4] + E[e,RJ,5] >= 5 - M (1 - I[e,13])
it14: E[e,BH,9] + E[e,PA,10] + E[e,FZ,11] + E[e,CU,12] + E[e,RJ,13] >= 5 - M (1 - I[e,14])
it15: E[e,BR,10] + E[e,SP,11] + E[e,NT,12] + E[e,PA,13] + E[e,RJ,14] >= 5 - M (1 - I[e,15])
it16: E[e,NT,11] + E[e,CU,12] + E[e,PA,13] + E[e,SP,14] + E[e,RJ,15] >= 5 - M (1 - I[e,16])
it17: E[e,CU,12] + E[e,PA,13] + E[e,BR,14] + E[e,SV,15] + E[e,RJ,16] >= 5 - M (1 - I[e,17])
it18: E[e,RE,8] + E[e,BH,9] + E[e,RJ,10] >= 3 - M (1 - I[e,18])
it19: E[e,BR,14] + E[e,CT,15] + E[e,MN,16] + E[e,RJ,17] >= 4 - M (1 - I[e,19])
it20: E[e,CU,8] + E[e,BH,9] + E[e,MN,10] + E[e,BR,11] + E[e,NT,12] + E[e,RJ,13] >= 6 - M (1 - I[e,20])
it21: E[e,BH,9] + E[e,PA,10] + E[e,SP,11] + E[e,NT,12] + E[e,RJ,13] >= 5 - M (1 - I[e,21])
it22: E[e,SP,11] + E[e,NT,12] + E[e,PA,13] + E[e,BR,14] + E[e,RJ,15] >= 5 - M (1 - I[e,22])
it23: E[e,NT,12] + E[e,PA,13] + E[e,RJ,14] >= 3 - M (1 - I[e,23])
it24: E[e,SP,14] + E[e,RJ,15] >= 2 - M (1 - I[e,24])
it25: E[e,BR,14] + E[e,CU,15] + E[e,FZ,16] + E[e,RJ,17] >= 4 - M (1 - I[e,25])
it26: E[e,CU,8] + E[e,FZ,9] + E[e,BR,10] + E[e,SV,11] + E[e,RJ,12] >= 5 - M (1 - I[e,26])